Disciplina: Estudos Sociais dos Algorítmos e Inteligência Artificial
…
Realizando a “tokenização” do texto.

# GOVERNISTAS
discursos_senadores_gov_unnested <- discursos_senadores_governistas %>%
        unnest_tokens(term, texto_discurso)
        # o primeiro argumento da fç unnest_tokens é o novo nome da coluna de saída que será criada, e o # segundo é a fonte, de onde será retirada. 
# Notar que o número da linha de onde a palavra veio é mantido. 

discursos_senadores_gov_unnested

## # A tibble: 61,258 x 2
##    nome_discursante term      
##    <chr>            <chr>     
##  1 CIRO NOGUEIRA    senadores 
##  2 CIRO NOGUEIRA    achava    
##  3 CIRO NOGUEIRA    deveríamos
##  4 CIRO NOGUEIRA    suspender 
##  5 CIRO NOGUEIRA    atual     
##  6 CIRO NOGUEIRA    sessão    
##  7 CIRO NOGUEIRA    sanado    
##  8 CIRO NOGUEIRA    vício     
##  9 CIRO NOGUEIRA    vejo      
## 10 CIRO NOGUEIRA    ser       
## # ... with 61,248 more rows

# OPOSIÇÃO
discursos_senadores_opo_unnested <- discursos_senadores_oposicao %>%
        unnest_tokens(term, texto_discurso)
        # o primeiro argumento da fç unnest_tokens é o novo nome da coluna de saída que será criada, e o # segundo é a fonte, de onde será retirada. 
# Notar que o número da linha de onde a palavra veio é mantido. 

discursos_senadores_opo_unnested

## # A tibble: 60,337 x 2
##    nome_discursante term      
##    <chr>            <chr>     
##  1 OTTO ALENCAR     invocando 
##  2 OTTO ALENCAR     proteção  
##  3 OTTO ALENCAR     deus      
##  4 OTTO ALENCAR     declaro   
##  5 OTTO ALENCAR     aberta    
##  6 OTTO ALENCAR     sessão    
##  7 OTTO ALENCAR     eleição   
##  8 OTTO ALENCAR     quórum    
##  9 OTTO ALENCAR     suficiente
## 10 OTTO ALENCAR     abertura  
## # ... with 60,327 more rows
…
Termos mais frequentes por classe polar.

# GOVERNISTAS

# Determina as frequências dos termos de polaridade não nula.
tb_words_gov <- tb_sen_gov %>%
    count(term, polarity, sort = TRUE) %>%
    filter(polarity != 0)

tb_cloud <- tb_words_gov %>%
    spread(key = "polarity", value = "n", fill = 0) %>%
    rename("negative" = "-1", "positive" = "1")
tb_cloud

## # A tibble: 1,235 x 3
##    term       negative positive
##    <chr>         <dbl>    <dbl>
##  1 abandonada        1        0
##  2 abjetos           1        0
##  3 abrangente        0        1
##  4 abrir             6        0
##  5 abrupta           1        0
##  6 absoluta          0       13
##  7 absoluto          0        4
##  8 abstrato          2        0
##  9 absurda           5        0
## 10 absurdas          1        0
## # ... with 1,225 more rows
…
# OPOSIÇÃO

tb_words_oposicao <- tb_sen_opo %>%
    count(term, polarity, sort = TRUE) %>%
    filter(polarity != 0)

tb_cloud <- tb_words_oposicao %>%
    spread(key = "polarity", value = "n", fill = 0) %>%
    rename("negative" = "-1", "positive" = "1")
tb_cloud

## # A tibble: 1,131 x 3
##    term       negative positive
##    <chr>         <dbl>    <dbl>
##  1 abalizada         0        1
##  2 abandonado        1        0
##  3 abolido           1        0
##  4 abrir             9        0
##  5 absoluta          0       10
##  6 absoluto          0        2
##  7 absolutos         0        1
##  8 absolver          1        0
##  9 absurda           2        0
## 10 absurdo          12        0
## # ... with 1,121 more rows
…
